<svg xmlns="http://www.w3.org/2000/svg" width="288" height="384" viewBox="0 0 288 384">
  <g id="lixeira" transform="translate(-112 -64)">
    <path id="Caminho_1" data-name="Caminho 1" d="M400,113.3H320v-20A29.277,29.277,0,0,0,290.7,64H221.2A29.256,29.256,0,0,0,192,93.3v20H112V128h21.1l23.6,290.7A29.277,29.277,0,0,0,186,448H327a29.277,29.277,0,0,0,29.3-29.3L379.6,128H400Zm-193.4-20a14.7,14.7,0,0,1,14.6-14.7h69.5a14.639,14.639,0,0,1,14.6,14.7v20H206.6v-20Zm135,324.6v.8A14.7,14.7,0,0,1,327,433.4H186a14.639,14.639,0,0,1-14.6-14.7v-.8L147.7,128H364.9Z" fill="#ff3838"/>
    <g id="Grupo_1" data-name="Grupo 1">
      <rect id="Retângulo_1" data-name="Retângulo 1" width="14" height="241" transform="translate(249 160)" fill="#ff3838"/>
      <path id="Caminho_2" data-name="Caminho 2" d="M320,160H305.4L294.7,401h14.6Z" fill="#ff3838"/>
      <path id="Caminho_3" data-name="Caminho 3" d="M206.5,160H192l10.7,241h14.6Z" fill="#ff3838"/>
    </g>
  </g>
</svg>
